hw6
…
bestFull <- bestFull[c(1,3,5,7,11,32)]  #Retreived need data for the graph 
names(bestFull) <- c("Breed_of_Dog","Type_of_Dog","Data_Score","Popularity","Intelligence_of_Dog","Size_of_Dog") 
#Renamed Cloumns above 
bestFull <- na.omit(bestFull)

bestFull

## # A tibble: 87 x 6
##    Breed_of_Dog Type_of_Dog Data_Score Popularity Intelligence_of
##    <chr>        <chr>            <dbl>      <dbl> <chr>           
##  1 Border Coll herding           3.64         39 1.0             
##  2 Border Terr terrier           3.61         61 30.0            
##  3 Brittany     sporting          3.54         30 19.0            
##  4 Cairn Terri terrier           3.53         48 35.0            
##  5 Welsh Sprin sporting          3.34         81 31.0            
##  6 English Coc sporting          3.33         51 18.0            
##  7 Cocker Span sporting          3.3          27 20.0            
##  8 Papillon     toy               3.26         33 8.0             
##  9 Australian  herding           3.25         49 10.0            
## 10 Shetland Sh herding           3.22         20 6.0             
## #  with 77 more rows, and 1 more variable: Size_of_Dog <chr>
…
